{
  "project_info": {
    "project_number": "154012533942",
    "firebase_url": "https://dev-entry.firebaseio.com",
    "project_id": "dev-entry",
    "storage_bucket": "dev-entry.appspot.com"
  },
  "client": [
    {
      "client_info": {
        "mobilesdk_app_id": "1:154012533942:android:f23d82b1fd9bd334",
        "android_client_info": {
          "package_name": "com.cogitator.firebasemlkit"
        }
      },
      "oauth_client": [
        {
          "client_id": "154012533942-mtl6760c4h42tvuqaftparvosjbm8kqt.apps.googleusercontent.com",
          "client_type": 3
        }
      ],
      "api_key": [
        {
          "current_key": "AIzaSyDWk5AwYDAvdt0gxlfBvBX1mDDHvU_RI8w"
        },
        {
          "current_key": "AIzaSyDNFD1S71ZE8RwcLZ0egUWkh2my_nfjc5U"
        }
      ],
      "services": {
        "appinvite_service": {
          "other_platform_oauth_client": [
            {
              "client_id": "154012533942-fe3hki2sgabgogkqcshgdrb57dju6o6d.apps.googleusercontent.com",
              "client_type": 3
            },
            {
              "client_id": "154012533942-r19d1c41l2bqrf46e6q10gij8mmmvolk.apps.googleusercontent.com",
              "client_type": 2,
              "ios_info": {
                "bundle_id": "ios.versionx.awhere"
              }
            }
          ]
        }
      }
    },
    {
      "client_info": {
        "mobilesdk_app_id": "1:154012533942:android:693c00b96c712e8c",
        "android_client_info": {
          "package_name": "com.google.firebase.codelab.mlkit"
        }
      },
      "oauth_client": [
        {
          "client_id": "154012533942-mtl6760c4h42tvuqaftparvosjbm8kqt.apps.googleusercontent.com",
          "client_type": 3
        }
      ],
      "api_key": [
        {
          "current_key": "AIzaSyDWk5AwYDAvdt0gxlfBvBX1mDDHvU_RI8w"
        },
        {
          "current_key": "AIzaSyDNFD1S71ZE8RwcLZ0egUWkh2my_nfjc5U"
        }
      ],
      "services": {
        "appinvite_service": {
          "other_platform_oauth_client": [
            {
              "client_id": "154012533942-fe3hki2sgabgogkqcshgdrb57dju6o6d.apps.googleusercontent.com",
              "client_type": 3
            },
            {
              "client_id": "154012533942-r19d1c41l2bqrf46e6q10gij8mmmvolk.apps.googleusercontent.com",
              "client_type": 2,
              "ios_info": {
                "bundle_id": "ios.versionx.awhere"
              }
            }
          ]
        }
      }
    },
    {
      "client_info": {
        "mobilesdk_app_id": "1:154012533942:android:449911702cb7179826d217",
        "android_client_info": {
          "package_name": "com.ml.quaterion.facenetdetection"
        }
      },
      "oauth_client": [
        {
          "client_id": "154012533942-mtl6760c4h42tvuqaftparvosjbm8kqt.apps.googleusercontent.com",
          "client_type": 3
        }
      ],
      "api_key": [
        {
          "current_key": "AIzaSyDWk5AwYDAvdt0gxlfBvBX1mDDHvU_RI8w"
        },
        {
          "current_key": "AIzaSyDNFD1S71ZE8RwcLZ0egUWkh2my_nfjc5U"
        }
      ],
      "services": {
        "appinvite_service": {
          "other_platform_oauth_client": [
            {
              "client_id": "154012533942-fe3hki2sgabgogkqcshgdrb57dju6o6d.apps.googleusercontent.com",
              "client_type": 3
            },
            {
              "client_id": "154012533942-r19d1c41l2bqrf46e6q10gij8mmmvolk.apps.googleusercontent.com",
              "client_type": 2,
              "ios_info": {
                "bundle_id": "ios.versionx.awhere"
              }
            }
          ]
        }
      }
    },
    {
      "client_info": {
        "mobilesdk_app_id": "1:154012533942:android:b13c2014c64be43e",
        "android_client_info": {
          "package_name": "in.versionx.callRecording"
        }
      },
      "oauth_client": [
        {
          "client_id": "154012533942-mtl6760c4h42tvuqaftparvosjbm8kqt.apps.googleusercontent.com",
          "client_type": 3
        }
      ],
      "api_key": [
        {
          "current_key": "AIzaSyDWk5AwYDAvdt0gxlfBvBX1mDDHvU_RI8w"
        },
        {
          "current_key": "AIzaSyDNFD1S71ZE8RwcLZ0egUWkh2my_nfjc5U"
        }
      ],
      "services": {
        "appinvite_service": {
          "other_platform_oauth_client": [
            {
              "client_id": "154012533942-fe3hki2sgabgogkqcshgdrb57dju6o6d.apps.googleusercontent.com",
              "client_type": 3
            },
            {
              "client_id": "154012533942-r19d1c41l2bqrf46e6q10gij8mmmvolk.apps.googleusercontent.com",
              "client_type": 2,
              "ios_info": {
                "bundle_id": "ios.versionx.awhere"
              }
            }
          ]
        }
      }
    },
    {
      "client_info": {
        "mobilesdk_app_id": "1:154012533942:android:6a2c61c78f3f69f1",
        "android_client_info": {
          "package_name": "in.versionx.feedback"
        }
      },
      "oauth_client": [
        {
          "client_id": "154012533942-mtl6760c4h42tvuqaftparvosjbm8kqt.apps.googleusercontent.com",
          "client_type": 3
        }
      ],
      "api_key": [
        {
          "current_key": "AIzaSyDWk5AwYDAvdt0gxlfBvBX1mDDHvU_RI8w"
        },
        {
          "current_key": "AIzaSyDNFD1S71ZE8RwcLZ0egUWkh2my_nfjc5U"
        }
      ],
      "services": {
        "appinvite_service": {
          "other_platform_oauth_client": [
            {
              "client_id": "154012533942-fe3hki2sgabgogkqcshgdrb57dju6o6d.apps.googleusercontent.com",
              "client_type": 3
            },
            {
              "client_id": "154012533942-r19d1c41l2bqrf46e6q10gij8mmmvolk.apps.googleusercontent.com",
              "client_type": 2,
              "ios_info": {
                "bundle_id": "ios.versionx.awhere"
              }
            }
          ]
        }
      }
    },
    {
      "client_info": {
        "mobilesdk_app_id": "1:154012533942:android:4c2f80532556aa81",
        "android_client_info": {
          "package_name": "in.versionx.flutter_app"
        }
      },
      "oauth_client": [
        {
          "client_id": "154012533942-mtl6760c4h42tvuqaftparvosjbm8kqt.apps.googleusercontent.com",
          "client_type": 3
        }
      ],
      "api_key": [
        {
          "current_key": "AIzaSyDWk5AwYDAvdt0gxlfBvBX1mDDHvU_RI8w"
        },
        {
          "current_key": "AIzaSyDNFD1S71ZE8RwcLZ0egUWkh2my_nfjc5U"
        }
      ],
      "services": {
        "appinvite_service": {
          "other_platform_oauth_client": [
            {
              "client_id": "154012533942-fe3hki2sgabgogkqcshgdrb57dju6o6d.apps.googleusercontent.com",
              "client_type": 3
            },
            {
              "client_id": "154012533942-r19d1c41l2bqrf46e6q10gij8mmmvolk.apps.googleusercontent.com",
              "client_type": 2,
              "ios_info": {
                "bundle_id": "ios.versionx.awhere"
              }
            }
          ]
        }
      }
    },
    {
      "client_info": {
        "mobilesdk_app_id": "1:154012533942:android:d05d1067f8068ea5",
        "android_client_info": {
          "package_name": "in.versionx.forms"
        }
      },
      "oauth_client": [
        {
          "client_id": "154012533942-mtl6760c4h42tvuqaftparvosjbm8kqt.apps.googleusercontent.com",
          "client_type": 3
        }
      ],
      "api_key": [
        {
          "current_key": "AIzaSyDWk5AwYDAvdt0gxlfBvBX1mDDHvU_RI8w"
        },
        {
          "current_key": "AIzaSyDNFD1S71ZE8RwcLZ0egUWkh2my_nfjc5U"
        }
      ],
      "services": {
        "appinvite_service": {
          "other_platform_oauth_client": [
            {
              "client_id": "154012533942-fe3hki2sgabgogkqcshgdrb57dju6o6d.apps.googleusercontent.com",
              "client_type": 3
            },
            {
              "client_id": "154012533942-r19d1c41l2bqrf46e6q10gij8mmmvolk.apps.googleusercontent.com",
              "client_type": 2,
              "ios_info": {
                "bundle_id": "ios.versionx.awhere"
              }
            }
          ]
        }
      }
    },
    {
      "client_info": {
        "mobilesdk_app_id": "1:154012533942:android:4eb32464f6f0b8d726d217",
        "android_client_info": {
          "package_name": "in.versionx.kone"
        }
      },
      "oauth_client": [
        {
          "client_id": "154012533942-mtl6760c4h42tvuqaftparvosjbm8kqt.apps.googleusercontent.com",
          "client_type": 3
        }
      ],
      "api_key": [
        {
          "current_key": "AIzaSyDWk5AwYDAvdt0gxlfBvBX1mDDHvU_RI8w"
        },
        {
          "current_key": "AIzaSyDNFD1S71ZE8RwcLZ0egUWkh2my_nfjc5U"
        }
      ],
      "services": {
        "appinvite_service": {
          "other_platform_oauth_client": [
            {
              "client_id": "154012533942-fe3hki2sgabgogkqcshgdrb57dju6o6d.apps.googleusercontent.com",
              "client_type": 3
            },
            {
              "client_id": "154012533942-r19d1c41l2bqrf46e6q10gij8mmmvolk.apps.googleusercontent.com",
              "client_type": 2,
              "ios_info": {
                "bundle_id": "ios.versionx.awhere"
              }
            }
          ]
        }
      }
    },
    {
      "client_info": {
        "mobilesdk_app_id": "1:154012533942:android:0fc0aee4d02ee52d26d217",
        "android_client_info": {
          "package_name": "in.versionx.parkingstatus"
        }
      },
      "oauth_client": [
        {
          "client_id": "154012533942-mtl6760c4h42tvuqaftparvosjbm8kqt.apps.googleusercontent.com",
          "client_type": 3
        }
      ],
      "api_key": [
        {
          "current_key": "AIzaSyDWk5AwYDAvdt0gxlfBvBX1mDDHvU_RI8w"
        },
        {
          "current_key": "AIzaSyDNFD1S71ZE8RwcLZ0egUWkh2my_nfjc5U"
        }
      ],
      "services": {
        "appinvite_service": {
          "other_platform_oauth_client": [
            {
              "client_id": "154012533942-fe3hki2sgabgogkqcshgdrb57dju6o6d.apps.googleusercontent.com",
              "client_type": 3
            },
            {
              "client_id": "154012533942-r19d1c41l2bqrf46e6q10gij8mmmvolk.apps.googleusercontent.com",
              "client_type": 2,
              "ios_info": {
                "bundle_id": "ios.versionx.awhere"
              }
            }
          ]
        }
      }
    },
    {
      "client_info": {
        "mobilesdk_app_id": "1:154012533942:android:98e434cbe10b214d26d217",
        "android_client_info": {
          "package_name": "in.versionx.valet"
        }
      },
      "oauth_client": [
        {
          "client_id": "154012533942-mtl6760c4h42tvuqaftparvosjbm8kqt.apps.googleusercontent.com",
          "client_type": 3
        }
      ],
      "api_key": [
        {
          "current_key": "AIzaSyDWk5AwYDAvdt0gxlfBvBX1mDDHvU_RI8w"
        },
        {
          "current_key": "AIzaSyDNFD1S71ZE8RwcLZ0egUWkh2my_nfjc5U"
        }
      ],
      "services": {
        "appinvite_service": {
          "other_platform_oauth_client": [
            {
              "client_id": "154012533942-fe3hki2sgabgogkqcshgdrb57dju6o6d.apps.googleusercontent.com",
              "client_type": 3
            },
            {
              "client_id": "154012533942-r19d1c41l2bqrf46e6q10gij8mmmvolk.apps.googleusercontent.com",
              "client_type": 2,
              "ios_info": {
                "bundle_id": "ios.versionx.awhere"
              }
            }
          ]
        }
      }
    },
    {
      "client_info": {
        "mobilesdk_app_id": "1:154012533942:android:55507483e7b61711",
        "android_client_info": {
          "package_name": "in.versionx.voting"
        }
      },
      "oauth_client": [
        {
          "client_id": "154012533942-mtl6760c4h42tvuqaftparvosjbm8kqt.apps.googleusercontent.com",
          "client_type": 3
        }
      ],
      "api_key": [
        {
          "current_key": "AIzaSyDWk5AwYDAvdt0gxlfBvBX1mDDHvU_RI8w"
        },
        {
          "current_key": "AIzaSyDNFD1S71ZE8RwcLZ0egUWkh2my_nfjc5U"
        }
      ],
      "services": {
        "appinvite_service": {
          "other_platform_oauth_client": [
            {
              "client_id": "154012533942-fe3hki2sgabgogkqcshgdrb57dju6o6d.apps.googleusercontent.com",
              "client_type": 3
            },
            {
              "client_id": "154012533942-r19d1c41l2bqrf46e6q10gij8mmmvolk.apps.googleusercontent.com",
              "client_type": 2,
              "ios_info": {
                "bundle_id": "ios.versionx.awhere"
              }
            }
          ]
        }
      }
    },
    {
      "client_info": {
        "mobilesdk_app_id": "1:154012533942:android:a6431adb29688ae8",
        "android_client_info": {
          "package_name": "in.versionx.whocame.info"
        }
      },
      "oauth_client": [
        {
          "client_id": "154012533942-mtl6760c4h42tvuqaftparvosjbm8kqt.apps.googleusercontent.com",
          "client_type": 3
        }
      ],
      "api_key": [
        {
          "current_key": "AIzaSyDWk5AwYDAvdt0gxlfBvBX1mDDHvU_RI8w"
        },
        {
          "current_key": "AIzaSyDNFD1S71ZE8RwcLZ0egUWkh2my_nfjc5U"
        }
      ],
      "services": {
        "appinvite_service": {
          "other_platform_oauth_client": [
            {
              "client_id": "154012533942-fe3hki2sgabgogkqcshgdrb57dju6o6d.apps.googleusercontent.com",
              "client_type": 3
            },
            {
              "client_id": "154012533942-r19d1c41l2bqrf46e6q10gij8mmmvolk.apps.googleusercontent.com",
              "client_type": 2,
              "ios_info": {
                "bundle_id": "ios.versionx.awhere"
              }
            }
          ]
        }
      }
    },
    {
      "client_info": {
        "mobilesdk_app_id": "1:154012533942:android:2eb3590cb1dd92fc",
        "android_client_info": {
          "package_name": "team.why.selfentry"
        }
      },
      "oauth_client": [
        {
          "client_id": "154012533942-mtl6760c4h42tvuqaftparvosjbm8kqt.apps.googleusercontent.com",
          "client_type": 3
        }
      ],
      "api_key": [
        {
          "current_key": "AIzaSyDWk5AwYDAvdt0gxlfBvBX1mDDHvU_RI8w"
        },
        {
          "current_key": "AIzaSyDNFD1S71ZE8RwcLZ0egUWkh2my_nfjc5U"
        }
      ],
      "services": {
        "appinvite_service": {
          "other_platform_oauth_client": [
            {
              "client_id": "154012533942-fe3hki2sgabgogkqcshgdrb57dju6o6d.apps.googleusercontent.com",
              "client_type": 3
            },
            {
              "client_id": "154012533942-r19d1c41l2bqrf46e6q10gij8mmmvolk.apps.googleusercontent.com",
              "client_type": 2,
              "ios_info": {
                "bundle_id": "ios.versionx.awhere"
              }
            }
          ]
        }
      }
    },
    {
      "client_info": {
        "mobilesdk_app_id": "1:154012533942:android:25d44ccd4573c79e",
        "android_client_info": {
          "package_name": "tokens.versionx.tokens"
        }
      },
      "oauth_client": [
        {
          "client_id": "154012533942-mtl6760c4h42tvuqaftparvosjbm8kqt.apps.googleusercontent.com",
          "client_type": 3
        }
      ],
      "api_key": [
        {
          "current_key": "AIzaSyDWk5AwYDAvdt0gxlfBvBX1mDDHvU_RI8w"
        },
        {
          "current_key": "AIzaSyDNFD1S71ZE8RwcLZ0egUWkh2my_nfjc5U"
        }
      ],
      "services": {
        "appinvite_service": {
          "other_platform_oauth_client": [
            {
              "client_id": "154012533942-fe3hki2sgabgogkqcshgdrb57dju6o6d.apps.googleusercontent.com",
              "client_type": 3
            },
            {
              "client_id": "154012533942-r19d1c41l2bqrf46e6q10gij8mmmvolk.apps.googleusercontent.com",
              "client_type": 2,
              "ios_info": {
                "bundle_id": "ios.versionx.awhere"
              }
            }
          ]
        }
      }
    },
    {
      "client_info": {
        "mobilesdk_app_id": "1:154012533942:android:8f618e9c9f450617",
        "android_client_info": {
          "package_name": "versionx.app"
        }
      },
      "oauth_client": [
        {
          "client_id": "154012533942-mtl6760c4h42tvuqaftparvosjbm8kqt.apps.googleusercontent.com",
          "client_type": 3
        }
      ],
      "api_key": [
        {
          "current_key": "AIzaSyDWk5AwYDAvdt0gxlfBvBX1mDDHvU_RI8w"
        },
        {
          "current_key": "AIzaSyDNFD1S71ZE8RwcLZ0egUWkh2my_nfjc5U"
        }
      ],
      "services": {
        "appinvite_service": {
          "other_platform_oauth_client": [
            {
              "client_id": "154012533942-fe3hki2sgabgogkqcshgdrb57dju6o6d.apps.googleusercontent.com",
              "client_type": 3
            },
            {
              "client_id": "154012533942-r19d1c41l2bqrf46e6q10gij8mmmvolk.apps.googleusercontent.com",
              "client_type": 2,
              "ios_info": {
                "bundle_id": "ios.versionx.awhere"
              }
            }
          ]
        }
      }
    },
    {
      "client_info": {
        "mobilesdk_app_id": "1:154012533942:android:62d45034be690221",
        "android_client_info": {
          "package_name": "versionx.autoEntry"
        }
      },
      "oauth_client": [
        {
          "client_id": "154012533942-mtl6760c4h42tvuqaftparvosjbm8kqt.apps.googleusercontent.com",
          "client_type": 3
        }
      ],
      "api_key": [
        {
          "current_key": "AIzaSyDWk5AwYDAvdt0gxlfBvBX1mDDHvU_RI8w"
        },
        {
          "current_key": "AIzaSyDNFD1S71ZE8RwcLZ0egUWkh2my_nfjc5U"
        }
      ],
      "services": {
        "appinvite_service": {
          "other_platform_oauth_client": [
            {
              "client_id": "154012533942-fe3hki2sgabgogkqcshgdrb57dju6o6d.apps.googleusercontent.com",
              "client_type": 3
            },
            {
              "client_id": "154012533942-r19d1c41l2bqrf46e6q10gij8mmmvolk.apps.googleusercontent.com",
              "client_type": 2,
              "ios_info": {
                "bundle_id": "ios.versionx.awhere"
              }
            }
          ]
        }
      }
    },
    {
      "client_info": {
        "mobilesdk_app_id": "1:154012533942:android:4b39342284540956",
        "android_client_info": {
          "package_name": "versionx.backEntry"
        }
      },
      "oauth_client": [
        {
          "client_id": "154012533942-mtl6760c4h42tvuqaftparvosjbm8kqt.apps.googleusercontent.com",
          "client_type": 3
        }
      ],
      "api_key": [
        {
          "current_key": "AIzaSyDWk5AwYDAvdt0gxlfBvBX1mDDHvU_RI8w"
        },
        {
          "current_key": "AIzaSyDNFD1S71ZE8RwcLZ0egUWkh2my_nfjc5U"
        }
      ],
      "services": {
        "appinvite_service": {
          "other_platform_oauth_client": [
            {
              "client_id": "154012533942-fe3hki2sgabgogkqcshgdrb57dju6o6d.apps.googleusercontent.com",
              "client_type": 3
            },
            {
              "client_id": "154012533942-r19d1c41l2bqrf46e6q10gij8mmmvolk.apps.googleusercontent.com",
              "client_type": 2,
              "ios_info": {
                "bundle_id": "ios.versionx.awhere"
              }
            }
          ]
        }
      }
    },
    {
      "client_info": {
        "mobilesdk_app_id": "1:154012533942:android:5adbef6ef2f1b46b",
        "android_client_info": {
          "package_name": "versionx.complaintEntry"
        }
      },
      "oauth_client": [
        {
          "client_id": "154012533942-mtl6760c4h42tvuqaftparvosjbm8kqt.apps.googleusercontent.com",
          "client_type": 3
        }
      ],
      "api_key": [
        {
          "current_key": "AIzaSyDWk5AwYDAvdt0gxlfBvBX1mDDHvU_RI8w"
        },
        {
          "current_key": "AIzaSyDNFD1S71ZE8RwcLZ0egUWkh2my_nfjc5U"
        }
      ],
      "services": {
        "appinvite_service": {
          "other_platform_oauth_client": [
            {
              "client_id": "154012533942-fe3hki2sgabgogkqcshgdrb57dju6o6d.apps.googleusercontent.com",
              "client_type": 3
            },
            {
              "client_id": "154012533942-r19d1c41l2bqrf46e6q10gij8mmmvolk.apps.googleusercontent.com",
              "client_type": 2,
              "ios_info": {
                "bundle_id": "ios.versionx.awhere"
              }
            }
          ]
        }
      }
    },
    {
      "client_info": {
        "mobilesdk_app_id": "1:154012533942:android:97cdd9c1ca028031",
        "android_client_info": {
          "package_name": "versionx.entryPoint"
        }
      },
      "oauth_client": [
        {
          "client_id": "154012533942-mtl6760c4h42tvuqaftparvosjbm8kqt.apps.googleusercontent.com",
          "client_type": 3
        }
      ],
      "api_key": [
        {
          "current_key": "AIzaSyDWk5AwYDAvdt0gxlfBvBX1mDDHvU_RI8w"
        },
        {
          "current_key": "AIzaSyDNFD1S71ZE8RwcLZ0egUWkh2my_nfjc5U"
        }
      ],
      "services": {
        "appinvite_service": {
          "other_platform_oauth_client": [
            {
              "client_id": "154012533942-fe3hki2sgabgogkqcshgdrb57dju6o6d.apps.googleusercontent.com",
              "client_type": 3
            },
            {
              "client_id": "154012533942-r19d1c41l2bqrf46e6q10gij8mmmvolk.apps.googleusercontent.com",
              "client_type": 2,
              "ios_info": {
                "bundle_id": "ios.versionx.awhere"
              }
            }
          ]
        }
      }
    },
    {
      "client_info": {
        "mobilesdk_app_id": "1:154012533942:android:ac8b2e73bbdbd933",
        "android_client_info": {
          "package_name": "versionx.entryToken"
        }
      },
      "oauth_client": [
        {
          "client_id": "154012533942-mtl6760c4h42tvuqaftparvosjbm8kqt.apps.googleusercontent.com",
          "client_type": 3
        }
      ],
      "api_key": [
        {
          "current_key": "AIzaSyDWk5AwYDAvdt0gxlfBvBX1mDDHvU_RI8w"
        },
        {
          "current_key": "AIzaSyDNFD1S71ZE8RwcLZ0egUWkh2my_nfjc5U"
        }
      ],
      "services": {
        "appinvite_service": {
          "other_platform_oauth_client": [
            {
              "client_id": "154012533942-fe3hki2sgabgogkqcshgdrb57dju6o6d.apps.googleusercontent.com",
              "client_type": 3
            },
            {
              "client_id": "154012533942-r19d1c41l2bqrf46e6q10gij8mmmvolk.apps.googleusercontent.com",
              "client_type": 2,
              "ios_info": {
                "bundle_id": "ios.versionx.awhere"
              }
            }
          ]
        }
      }
    },
    {
      "client_info": {
        "mobilesdk_app_id": "1:154012533942:android:df3120224164fb9a",
        "android_client_info": {
          "package_name": "versionx.entryTools"
        }
      },
      "oauth_client": [
        {
          "client_id": "154012533942-mtl6760c4h42tvuqaftparvosjbm8kqt.apps.googleusercontent.com",
          "client_type": 3
        }
      ],
      "api_key": [
        {
          "current_key": "AIzaSyDWk5AwYDAvdt0gxlfBvBX1mDDHvU_RI8w"
        },
        {
          "current_key": "AIzaSyDNFD1S71ZE8RwcLZ0egUWkh2my_nfjc5U"
        }
      ],
      "services": {
        "appinvite_service": {
          "other_platform_oauth_client": [
            {
              "client_id": "154012533942-fe3hki2sgabgogkqcshgdrb57dju6o6d.apps.googleusercontent.com",
              "client_type": 3
            },
            {
              "client_id": "154012533942-r19d1c41l2bqrf46e6q10gij8mmmvolk.apps.googleusercontent.com",
              "client_type": 2,
              "ios_info": {
                "bundle_id": "ios.versionx.awhere"
              }
            }
          ]
        }
      }
    },
    {
      "client_info": {
        "mobilesdk_app_id": "1:154012533942:android:0b1b383f1a6781ed26d217",
        "android_client_info": {
          "package_name": "versionx.face"
        }
      },
      "oauth_client": [
        {
          "client_id": "154012533942-mtl6760c4h42tvuqaftparvosjbm8kqt.apps.googleusercontent.com",
          "client_type": 3
        }
      ],
      "api_key": [
        {
          "current_key": "AIzaSyDWk5AwYDAvdt0gxlfBvBX1mDDHvU_RI8w"
        },
        {
          "current_key": "AIzaSyDNFD1S71ZE8RwcLZ0egUWkh2my_nfjc5U"
        }
      ],
      "services": {
        "appinvite_service": {
          "other_platform_oauth_client": [
            {
              "client_id": "154012533942-fe3hki2sgabgogkqcshgdrb57dju6o6d.apps.googleusercontent.com",
              "client_type": 3
            },
            {
              "client_id": "154012533942-r19d1c41l2bqrf46e6q10gij8mmmvolk.apps.googleusercontent.com",
              "client_type": 2,
              "ios_info": {
                "bundle_id": "ios.versionx.awhere"
              }
            }
          ]
        }
      }
    },
    {
      "client_info": {
        "mobilesdk_app_id": "1:154012533942:android:fc8bebd1a193ad1d26d217",
        "android_client_info": {
          "package_name": "versionx.facex"
        }
      },
      "oauth_client": [
        {
          "client_id": "154012533942-mtl6760c4h42tvuqaftparvosjbm8kqt.apps.googleusercontent.com",
          "client_type": 3
        }
      ],
      "api_key": [
        {
          "current_key": "AIzaSyDWk5AwYDAvdt0gxlfBvBX1mDDHvU_RI8w"
        },
        {
          "current_key": "AIzaSyDNFD1S71ZE8RwcLZ0egUWkh2my_nfjc5U"
        }
      ],
      "services": {
        "appinvite_service": {
          "other_platform_oauth_client": [
            {
              "client_id": "154012533942-fe3hki2sgabgogkqcshgdrb57dju6o6d.apps.googleusercontent.com",
              "client_type": 3
            },
            {
              "client_id": "154012533942-r19d1c41l2bqrf46e6q10gij8mmmvolk.apps.googleusercontent.com",
              "client_type": 2,
              "ios_info": {
                "bundle_id": "ios.versionx.awhere"
              }
            }
          ]
        }
      }
    },
    {
      "client_info": {
        "mobilesdk_app_id": "1:154012533942:android:3dc9aa67bea1af6b26d217",
        "android_client_info": {
          "package_name": "versionx.facility"
        }
      },
      "oauth_client": [
        {
          "client_id": "154012533942-mtl6760c4h42tvuqaftparvosjbm8kqt.apps.googleusercontent.com",
          "client_type": 3
        }
      ],
      "api_key": [
        {
          "current_key": "AIzaSyDWk5AwYDAvdt0gxlfBvBX1mDDHvU_RI8w"
        },
        {
          "current_key": "AIzaSyDNFD1S71ZE8RwcLZ0egUWkh2my_nfjc5U"
        }
      ],
      "services": {
        "appinvite_service": {
          "other_platform_oauth_client": [
            {
              "client_id": "154012533942-fe3hki2sgabgogkqcshgdrb57dju6o6d.apps.googleusercontent.com",
              "client_type": 3
            },
            {
              "client_id": "154012533942-r19d1c41l2bqrf46e6q10gij8mmmvolk.apps.googleusercontent.com",
              "client_type": 2,
              "ios_info": {
                "bundle_id": "ios.versionx.awhere"
              }
            }
          ]
        }
      }
    },
    {
      "client_info": {
        "mobilesdk_app_id": "1:154012533942:android:967a105efa12cbdc",
        "android_client_info": {
          "package_name": "versionx.gps"
        }
      },
      "oauth_client": [
        {
          "client_id": "154012533942-mtl6760c4h42tvuqaftparvosjbm8kqt.apps.googleusercontent.com",
          "client_type": 3
        }
      ],
      "api_key": [
        {
          "current_key": "AIzaSyDWk5AwYDAvdt0gxlfBvBX1mDDHvU_RI8w"
        },
        {
          "current_key": "AIzaSyDNFD1S71ZE8RwcLZ0egUWkh2my_nfjc5U"
        }
      ],
      "services": {
        "appinvite_service": {
          "other_platform_oauth_client": [
            {
              "client_id": "154012533942-fe3hki2sgabgogkqcshgdrb57dju6o6d.apps.googleusercontent.com",
              "client_type": 3
            },
            {
              "client_id": "154012533942-r19d1c41l2bqrf46e6q10gij8mmmvolk.apps.googleusercontent.com",
              "client_type": 2,
              "ios_info": {
                "bundle_id": "ios.versionx.awhere"
              }
            }
          ]
        }
      }
    },
    {
      "client_info": {
        "mobilesdk_app_id": "1:154012533942:android:7f1def5af8a30558",
        "android_client_info": {
          "package_name": "versionx.guardpatrol"
        }
      },
      "oauth_client": [
        {
          "client_id": "154012533942-mtl6760c4h42tvuqaftparvosjbm8kqt.apps.googleusercontent.com",
          "client_type": 3
        }
      ],
      "api_key": [
        {
          "current_key": "AIzaSyDWk5AwYDAvdt0gxlfBvBX1mDDHvU_RI8w"
        },
        {
          "current_key": "AIzaSyDNFD1S71ZE8RwcLZ0egUWkh2my_nfjc5U"
        }
      ],
      "services": {
        "appinvite_service": {
          "other_platform_oauth_client": [
            {
              "client_id": "154012533942-fe3hki2sgabgogkqcshgdrb57dju6o6d.apps.googleusercontent.com",
              "client_type": 3
            },
            {
              "client_id": "154012533942-r19d1c41l2bqrf46e6q10gij8mmmvolk.apps.googleusercontent.com",
              "client_type": 2,
              "ios_info": {
                "bundle_id": "ios.versionx.awhere"
              }
            }
          ]
        }
      }
    },
    {
      "client_info": {
        "mobilesdk_app_id": "1:154012533942:android:48a0575654212b63",
        "android_client_info": {
          "package_name": "versionx.hostelEntry"
        }
      },
      "oauth_client": [
        {
          "client_id": "154012533942-mtl6760c4h42tvuqaftparvosjbm8kqt.apps.googleusercontent.com",
          "client_type": 3
        }
      ],
      "api_key": [
        {
          "current_key": "AIzaSyDWk5AwYDAvdt0gxlfBvBX1mDDHvU_RI8w"
        },
        {
          "current_key": "AIzaSyDNFD1S71ZE8RwcLZ0egUWkh2my_nfjc5U"
        }
      ],
      "services": {
        "appinvite_service": {
          "other_platform_oauth_client": [
            {
              "client_id": "154012533942-fe3hki2sgabgogkqcshgdrb57dju6o6d.apps.googleusercontent.com",
              "client_type": 3
            },
            {
              "client_id": "154012533942-r19d1c41l2bqrf46e6q10gij8mmmvolk.apps.googleusercontent.com",
              "client_type": 2,
              "ios_info": {
                "bundle_id": "ios.versionx.awhere"
              }
            }
          ]
        }
      }
    },
    {
      "client_info": {
        "mobilesdk_app_id": "1:154012533942:android:3937f11f09ad15a526d217",
        "android_client_info": {
          "package_name": "versionx.kone"
        }
      },
      "oauth_client": [
        {
          "client_id": "154012533942-mtl6760c4h42tvuqaftparvosjbm8kqt.apps.googleusercontent.com",
          "client_type": 3
        }
      ],
      "api_key": [
        {
          "current_key": "AIzaSyDWk5AwYDAvdt0gxlfBvBX1mDDHvU_RI8w"
        },
        {
          "current_key": "AIzaSyDNFD1S71ZE8RwcLZ0egUWkh2my_nfjc5U"
        }
      ],
      "services": {
        "appinvite_service": {
          "other_platform_oauth_client": [
            {
              "client_id": "154012533942-fe3hki2sgabgogkqcshgdrb57dju6o6d.apps.googleusercontent.com",
              "client_type": 3
            },
            {
              "client_id": "154012533942-r19d1c41l2bqrf46e6q10gij8mmmvolk.apps.googleusercontent.com",
              "client_type": 2,
              "ios_info": {
                "bundle_id": "ios.versionx.awhere"
              }
            }
          ]
        }
      }
    },
    {
      "client_info": {
        "mobilesdk_app_id": "1:154012533942:android:fd9acfab80a44dbd",
        "android_client_info": {
          "package_name": "versionx.locker"
        }
      },
      "oauth_client": [
        {
          "client_id": "154012533942-mtl6760c4h42tvuqaftparvosjbm8kqt.apps.googleusercontent.com",
          "client_type": 3
        }
      ],
      "api_key": [
        {
          "current_key": "AIzaSyDWk5AwYDAvdt0gxlfBvBX1mDDHvU_RI8w"
        },
        {
          "current_key": "AIzaSyDNFD1S71ZE8RwcLZ0egUWkh2my_nfjc5U"
        }
      ],
      "services": {
        "appinvite_service": {
          "other_platform_oauth_client": [
            {
              "client_id": "154012533942-fe3hki2sgabgogkqcshgdrb57dju6o6d.apps.googleusercontent.com",
              "client_type": 3
            },
            {
              "client_id": "154012533942-r19d1c41l2bqrf46e6q10gij8mmmvolk.apps.googleusercontent.com",
              "client_type": 2,
              "ios_info": {
                "bundle_id": "ios.versionx.awhere"
              }
            }
          ]
        }
      }
    },
    {
      "client_info": {
        "mobilesdk_app_id": "1:154012533942:android:383bbda23d24ca8f",
        "android_client_info": {
          "package_name": "versionx.mlkit"
        }
      },
      "oauth_client": [
        {
          "client_id": "154012533942-mtl6760c4h42tvuqaftparvosjbm8kqt.apps.googleusercontent.com",
          "client_type": 3
        }
      ],
      "api_key": [
        {
          "current_key": "AIzaSyDWk5AwYDAvdt0gxlfBvBX1mDDHvU_RI8w"
        },
        {
          "current_key": "AIzaSyDNFD1S71ZE8RwcLZ0egUWkh2my_nfjc5U"
        }
      ],
      "services": {
        "appinvite_service": {
          "other_platform_oauth_client": [
            {
              "client_id": "154012533942-fe3hki2sgabgogkqcshgdrb57dju6o6d.apps.googleusercontent.com",
              "client_type": 3
            },
            {
              "client_id": "154012533942-r19d1c41l2bqrf46e6q10gij8mmmvolk.apps.googleusercontent.com",
              "client_type": 2,
              "ios_info": {
                "bundle_id": "ios.versionx.awhere"
              }
            }
          ]
        }
      }
    },
    {
      "client_info": {
        "mobilesdk_app_id": "1:154012533942:android:477ad6abf17580ba",
        "android_client_info": {
          "package_name": "versionx.mlkitbarcode"
        }
      },
      "oauth_client": [
        {
          "client_id": "154012533942-mtl6760c4h42tvuqaftparvosjbm8kqt.apps.googleusercontent.com",
          "client_type": 3
        }
      ],
      "api_key": [
        {
          "current_key": "AIzaSyDWk5AwYDAvdt0gxlfBvBX1mDDHvU_RI8w"
        },
        {
          "current_key": "AIzaSyDNFD1S71ZE8RwcLZ0egUWkh2my_nfjc5U"
        }
      ],
      "services": {
        "appinvite_service": {
          "other_platform_oauth_client": [
            {
              "client_id": "154012533942-fe3hki2sgabgogkqcshgdrb57dju6o6d.apps.googleusercontent.com",
              "client_type": 3
            },
            {
              "client_id": "154012533942-r19d1c41l2bqrf46e6q10gij8mmmvolk.apps.googleusercontent.com",
              "client_type": 2,
              "ios_info": {
                "bundle_id": "ios.versionx.awhere"
              }
            }
          ]
        }
      }
    },
    {
      "client_info": {
        "mobilesdk_app_id": "1:154012533942:android:4f38a78ec28f7734",
        "android_client_info": {
          "package_name": "versionx.parking"
        }
      },
      "oauth_client": [
        {
          "client_id": "154012533942-mtl6760c4h42tvuqaftparvosjbm8kqt.apps.googleusercontent.com",
          "client_type": 3
        }
      ],
      "api_key": [
        {
          "current_key": "AIzaSyDWk5AwYDAvdt0gxlfBvBX1mDDHvU_RI8w"
        },
        {
          "current_key": "AIzaSyDNFD1S71ZE8RwcLZ0egUWkh2my_nfjc5U"
        }
      ],
      "services": {
        "appinvite_service": {
          "other_platform_oauth_client": [
            {
              "client_id": "154012533942-fe3hki2sgabgogkqcshgdrb57dju6o6d.apps.googleusercontent.com",
              "client_type": 3
            },
            {
              "client_id": "154012533942-r19d1c41l2bqrf46e6q10gij8mmmvolk.apps.googleusercontent.com",
              "client_type": 2,
              "ios_info": {
                "bundle_id": "ios.versionx.awhere"
              }
            }
          ]
        }
      }
    },
    {
      "client_info": {
        "mobilesdk_app_id": "1:154012533942:android:2cfb466448068910",
        "android_client_info": {
          "package_name": "versionx.safeChild"
        }
      },
      "oauth_client": [
        {
          "client_id": "154012533942-mtl6760c4h42tvuqaftparvosjbm8kqt.apps.googleusercontent.com",
          "client_type": 3
        }
      ],
      "api_key": [
        {
          "current_key": "AIzaSyDWk5AwYDAvdt0gxlfBvBX1mDDHvU_RI8w"
        },
        {
          "current_key": "AIzaSyDNFD1S71ZE8RwcLZ0egUWkh2my_nfjc5U"
        }
      ],
      "services": {
        "appinvite_service": {
          "other_platform_oauth_client": [
            {
              "client_id": "154012533942-fe3hki2sgabgogkqcshgdrb57dju6o6d.apps.googleusercontent.com",
              "client_type": 3
            },
            {
              "client_id": "154012533942-r19d1c41l2bqrf46e6q10gij8mmmvolk.apps.googleusercontent.com",
              "client_type": 2,
              "ios_info": {
                "bundle_id": "ios.versionx.awhere"
              }
            }
          ]
        }
      }
    },
    {
      "client_info": {
        "mobilesdk_app_id": "1:154012533942:android:61f2c615f5ae4cf7",
        "android_client_info": {
          "package_name": "versionx.selfentry"
        }
      },
      "oauth_client": [
        {
          "client_id": "154012533942-mtl6760c4h42tvuqaftparvosjbm8kqt.apps.googleusercontent.com",
          "client_type": 3
        }
      ],
      "api_key": [
        {
          "current_key": "AIzaSyDWk5AwYDAvdt0gxlfBvBX1mDDHvU_RI8w"
        },
        {
          "current_key": "AIzaSyDNFD1S71ZE8RwcLZ0egUWkh2my_nfjc5U"
        }
      ],
      "services": {
        "appinvite_service": {
          "other_platform_oauth_client": [
            {
              "client_id": "154012533942-fe3hki2sgabgogkqcshgdrb57dju6o6d.apps.googleusercontent.com",
              "client_type": 3
            },
            {
              "client_id": "154012533942-r19d1c41l2bqrf46e6q10gij8mmmvolk.apps.googleusercontent.com",
              "client_type": 2,
              "ios_info": {
                "bundle_id": "ios.versionx.awhere"
              }
            }
          ]
        }
      }
    },
    {
      "client_info": {
        "mobilesdk_app_id": "1:154012533942:android:265bfebabf6bdf33",
        "android_client_info": {
          "package_name": "versionx.stops"
        }
      },
      "oauth_client": [
        {
          "client_id": "154012533942-mtl6760c4h42tvuqaftparvosjbm8kqt.apps.googleusercontent.com",
          "client_type": 3
        }
      ],
      "api_key": [
        {
          "current_key": "AIzaSyDWk5AwYDAvdt0gxlfBvBX1mDDHvU_RI8w"
        },
        {
          "current_key": "AIzaSyDNFD1S71ZE8RwcLZ0egUWkh2my_nfjc5U"
        }
      ],
      "services": {
        "appinvite_service": {
          "other_platform_oauth_client": [
            {
              "client_id": "154012533942-fe3hki2sgabgogkqcshgdrb57dju6o6d.apps.googleusercontent.com",
              "client_type": 3
            },
            {
              "client_id": "154012533942-r19d1c41l2bqrf46e6q10gij8mmmvolk.apps.googleusercontent.com",
              "client_type": 2,
              "ios_info": {
                "bundle_id": "ios.versionx.awhere"
              }
            }
          ]
        }
      }
    },
    {
      "client_info": {
        "mobilesdk_app_id": "1:154012533942:android:308cb1b8c5cff93b",
        "android_client_info": {
          "package_name": "versionx.test"
        }
      },
      "oauth_client": [
        {
          "client_id": "154012533942-mtl6760c4h42tvuqaftparvosjbm8kqt.apps.googleusercontent.com",
          "client_type": 3
        }
      ],
      "api_key": [
        {
          "current_key": "AIzaSyDWk5AwYDAvdt0gxlfBvBX1mDDHvU_RI8w"
        },
        {
          "current_key": "AIzaSyDNFD1S71ZE8RwcLZ0egUWkh2my_nfjc5U"
        }
      ],
      "services": {
        "appinvite_service": {
          "other_platform_oauth_client": [
            {
              "client_id": "154012533942-fe3hki2sgabgogkqcshgdrb57dju6o6d.apps.googleusercontent.com",
              "client_type": 3
            },
            {
              "client_id": "154012533942-r19d1c41l2bqrf46e6q10gij8mmmvolk.apps.googleusercontent.com",
              "client_type": 2,
              "ios_info": {
                "bundle_id": "ios.versionx.awhere"
              }
            }
          ]
        }
      }
    },
    {
      "client_info": {
        "mobilesdk_app_id": "1:154012533942:android:521cf98ea0404f8c",
        "android_client_info": {
          "package_name": "versionx.tokens"
        }
      },
      "oauth_client": [
        {
          "client_id": "154012533942-mtl6760c4h42tvuqaftparvosjbm8kqt.apps.googleusercontent.com",
          "client_type": 3
        }
      ],
      "api_key": [
        {
          "current_key": "AIzaSyDWk5AwYDAvdt0gxlfBvBX1mDDHvU_RI8w"
        },
        {
          "current_key": "AIzaSyDNFD1S71ZE8RwcLZ0egUWkh2my_nfjc5U"
        }
      ],
      "services": {
        "appinvite_service": {
          "other_platform_oauth_client": [
            {
              "client_id": "154012533942-fe3hki2sgabgogkqcshgdrb57dju6o6d.apps.googleusercontent.com",
              "client_type": 3
            },
            {
              "client_id": "154012533942-r19d1c41l2bqrf46e6q10gij8mmmvolk.apps.googleusercontent.com",
              "client_type": 2,
              "ios_info": {
                "bundle_id": "ios.versionx.awhere"
              }
            }
          ]
        }
      }
    },
    {
      "client_info": {
        "mobilesdk_app_id": "1:154012533942:android:e5907a8faece8df3",
        "android_client_info": {
          "package_name": "versionx.verifyEntry"
        }
      },
      "oauth_client": [
        {
          "client_id": "154012533942-mtl6760c4h42tvuqaftparvosjbm8kqt.apps.googleusercontent.com",
          "client_type": 3
        }
      ],
      "api_key": [
        {
          "current_key": "AIzaSyDWk5AwYDAvdt0gxlfBvBX1mDDHvU_RI8w"
        },
        {
          "current_key": "AIzaSyDNFD1S71ZE8RwcLZ0egUWkh2my_nfjc5U"
        }
      ],
      "services": {
        "appinvite_service": {
          "other_platform_oauth_client": [
            {
              "client_id": "154012533942-fe3hki2sgabgogkqcshgdrb57dju6o6d.apps.googleusercontent.com",
              "client_type": 3
            },
            {
              "client_id": "154012533942-r19d1c41l2bqrf46e6q10gij8mmmvolk.apps.googleusercontent.com",
              "client_type": 2,
              "ios_info": {
                "bundle_id": "ios.versionx.awhere"
              }
            }
          ]
        }
      }
    }
  ],
  "configuration_version": "1"
}